Exp5_3/simulation/qsim/Exp53.msim.vcd
$comment
	File created using the following command:
		vcd file Exp53.msim.vcd -direction
$end
$date
	Tue Dec 10 11:04:08 2024
$end
$version
	ModelSim Version 10.1d
$end
$timescale
	1ps
$end
$scope module Exp53_vlg_vec_tst $end
$var reg 1 ! A $end
$var reg 1 " B $end
$var reg 1 # C $end
$var reg 1 $ D $end
$var reg 1 % E $end
$var reg 1 & F $end
$var reg 1 ' G $end
$var wire 1 ( S $end
$var wire 1 ) sampler $end
$scope module i1 $end
$var wire 1 * gnd $end
$var wire 1 + vcc $end
$var wire 1 , unknown $end
$var tri1 1 - devclrn $end
$var tri1 1 . devpor $end
$var tri1 1 / devoe $end
$var wire 1 0 S~output_o $end
$var wire 1 1 E~input_o $end
$var wire 1 2 B~input_o $end
$var wire 1 3 C~input_o $end
$var wire 1 4 G~input_o $end
$var wire 1 5 inst|Mux0~3_combout $end
$var wire 1 6 A~input_o $end
$var wire 1 7 D~input_o $end
$var wire 1 8 F~input_o $end
$var wire 1 9 inst|Mux0~1_combout $end
$var wire 1 : inst|Mux0~2_combout $end
$var wire 1 ; inst|Mux0~5_combout $end
$var wire 1 < inst|Mux0~4_combout $end
$var wire 1 = inst|Mux0~0_combout $end
$var wire 1 > inst|Mux0~6_combout $end
$upscope $end
$upscope $end
$enddefinitions $end
#0
$dumpvars
0!
0"
0#
0$
0%
0&
0'
0(
x)
0*
1+
x,
1-
1.
1/
00
01
02
03
04
05
06
07
08
09
0:
0;
0<
0=
0>
$end
#20000
1#
1'
13
14
0)
1:
1<
#40000
1"
1&
0#
0'
12
18
03
04
1)
0:
0<
#60000
1#
1'
13
14
0)
1:
15
19
1<
1;
1>
10
1(
#80000
1!
1%
0"
0&
0#
0'
16
11
02
08
03
04
1)
09
0:
05
0<
0;
0>
00
0(
#100000
1#
1'
13
14
0)
1:
15
1=
#120000
1"
1&
0#
0'
12
18
03
04
1)
0:
1;
#140000
1#
1'
13
14
0)
1:
0=
19
1<
1>
10
1(
#160000
1$
0!
0%
0"
0&
0#
0'
17
06
01
02
08
03
04
1)
09
0:
05
0<
0;
0>
00
0(
#180000
1#
1'
13
14
0)
1:
1=
1<
#200000
1"
1&
0#
0'
12
18
03
04
1)
0:
0=
19
#220000
1#
1'
13
14
0)
1:
15
1;
1>
10
1(
#240000
1!
1%
0"
0&
0#
0'
16
11
02
08
03
04
1)
1=
0:
05
0;
0>
00
0(
1>
10
1(
#260000
1#
1'
13
14
0)
1:
15
1;
0>
00
0(
#280000
1"
1&
0#
0'
12
18
03
04
1)
0:
09
0<
#300000
1#
1'
13
14
0)
1:
0=
19
1<
1>
10
1(
#320000
0$
0!
0%
0"
0&
0#
0'
07
06
01
02
08
03
04
1)
09
0:
05
0<
0;
0>
00
0(
#340000
1#
1'
13
14
0)
1:
1<
#360000
1"
1&
0#
0'
12
18
03
04
1)
0:
0<
#380000
1#
1'
13
14
0)
1:
15
19
1<
1;
1>
10
1(
#400000
1!
1%
0"
0&
0#
0'
16
11
02
08
03
04
1)
09
0:
05
0<
0;
0>
00
0(
#420000
1#
1'
13
14
0)
1:
15
1=
#440000
1"
1&
0#
0'
12
18
03
04
1)
0:
1;
#460000
1#
1'
13
14
0)
1:
0=
19
1<
1>
10
1(
#480000
1$
0!
0%
0"
0&
0#
0'
17
06
01
02
08
03
04
1)
09
0:
05
0<
0;
0>
00
0(
#500000
1#
1'
13
14
0)
1:
1=
1<
#520000
1"
1&
0#
0'
12
18
03
04
1)
0:
0=
19
#540000
1#
1'
13
14
0)
1:
15
1;
1>
10
1(
#560000
1!
1%
0"
0&
0#
0'
16
11
02
08
03
04
1)
1=
0:
05
0;
0>
00
0(
1>
10
1(
#580000
1#
1'
13
14
0)
1:
15
1;
0>
00
0(
#600000
1"
1&
0#
0'
12
18
03
04
1)
0:
09
0<
#620000
1#
1'
13
14
0)
1:
0=
19
1<
1>
10
1(
#640000
0$
0!
0%
0"
0&
0#
0'
07
06
01
02
08
03
04
1)
09
0:
05
0<
0;
0>
00
0(
#660000
1#
1'
13
14
0)
1:
1<
#680000
1"
1&
0#
0'
12
18
03
04
1)
0:
0<
#700000
1#
1'
13
14
0)
1:
15
19
1<
1;
1>
10
1(
#720000
1!
1%
0"
0&
0#
0'
16
11
02
08
03
04
1)
09
0:
05
0<
0;
0>
00
0(
#740000
1#
1'
13
14
0)
1:
15
1=
#760000
1"
1&
0#
0'
12
18
03
04
1)
0:
1;
#780000
1#
1'
13
14
0)
1:
0=
19
1<
1>
10
1(
#800000
1$
0!
0%
0"
0&
0#
0'
17
06
01
02
08
03
04
1)
09
0:
05
0<
0;
0>
00
0(
#820000
1#
1'
13
14
0)
1:
1=
1<
#840000
1"
1&
0#
0'
12
18
03
04
1)
0:
0=
19
#860000
1#
1'
13
14
0)
1:
15
1;
1>
10
1(
#880000
1!
1%
0"
0&
0#
0'
16
11
02
08
03
04
1)
1=
0:
05
0;
0>
00
0(
1>
10
1(
#900000
1#
1'
13
14
0)
1:
15
1;
0>
00
0(
#920000
1"
1&
0#
0'
12
18
03
04
1)
0:
09
0<
#940000
1#
1'
13
14
0)
1:
0=
19
1<
1>
10
1(
#960000
0$
0!
0%
0"
0&
0#
0'
07
06
01
02
08
03
04
1)
09
0:
05
0<
0;
0>
00
0(
#980000
1#
1'
13
14
0)
1:
1<
