Exp5_1/simulation/qsim/Exp51.msim.vcd
$comment
	File created using the following command:
		vcd file Exp51.msim.vcd -direction
$end
$date
	Tue Dec 10 08:51:18 2024
$end
$version
	ModelSim Version 10.1d
$end
$timescale
	1ps
$end
$scope module Exp51_vlg_vec_tst $end
$var reg 1 ! A $end
$var reg 1 " B $end
$var reg 1 # CARRY $end
$var wire 1 $ COUT $end
$var wire 1 % SUM $end
$var wire 1 & sampler $end
$scope module i1 $end
$var wire 1 ' gnd $end
$var wire 1 ( vcc $end
$var wire 1 ) unknown $end
$var tri1 1 * devclrn $end
$var tri1 1 + devpor $end
$var tri1 1 , devoe $end
$var wire 1 - SUM~output_o $end
$var wire 1 . COUT~output_o $end
$var wire 1 / A~input_o $end
$var wire 1 0 CARRY~input_o $end
$var wire 1 1 B~input_o $end
$var wire 1 2 inst3|Mux0~0_combout $end
$var wire 1 3 inst|Mux0~0_combout $end
$upscope $end
$upscope $end
$enddefinitions $end
#0
$dumpvars
0!
0"
0#
0$
0%
x&
0'
1(
x)
1*
1+
1,
0-
0.
0/
00
01
02
03
$end
#20000
1#
10
0&
12
1-
1%
#40000
1"
0#
11
00
1&
#60000
1#
10
0&
13
02
1.
0-
1$
0%
#80000
1!
0"
0#
1/
01
00
1&
03
12
0.
1-
0$
1%
#100000
1#
10
0&
13
02
1.
0-
1$
0%
#120000
1"
0#
11
00
1&
#140000
1#
10
0&
12
1-
1%
#160000
0!
0"
0#
0/
01
00
1&
03
02
0.
0-
0$
0%
#180000
1#
10
0&
12
1-
1%
#200000
1"
0#
11
00
1&
#220000
1#
10
0&
13
02
1.
0-
1$
0%
#240000
1!
0"
0#
1/
01
00
1&
03
12
0.
1-
0$
1%
#260000
1#
10
0&
13
02
1.
0-
1$
0%
#280000
1"
0#
11
00
1&
#300000
1#
10
0&
12
1-
1%
#320000
0!
0"
0#
0/
01
00
1&
03
02
0.
0-
0$
0%
#340000
1#
10
0&
12
1-
1%
#360000
1"
0#
11
00
1&
#380000
1#
10
0&
13
02
1.
0-
1$
0%
#400000
1!
0"
0#
1/
01
00
1&
03
12
0.
1-
0$
1%
#420000
1#
10
0&
13
02
1.
0-
1$
0%
#440000
1"
0#
11
00
1&
#460000
1#
10
0&
12
1-
1%
#480000
0!
0"
0#
0/
01
00
1&
03
02
0.
0-
0$
0%
#500000
1#
10
0&
12
1-
1%
#520000
1"
0#
11
00
1&
#540000
1#
10
0&
13
02
1.
0-
1$
0%
#560000
1!
0"
0#
1/
01
00
1&
03
12
0.
1-
0$
1%
#580000
1#
10
0&
13
02
1.
0-
1$
0%
#600000
1"
0#
11
00
1&
#620000
1#
10
0&
12
1-
1%
#640000
0!
0"
0#
0/
01
00
1&
03
02
0.
0-
0$
0%
#660000
1#
10
0&
12
1-
1%
#680000
1"
0#
11
00
1&
#700000
1#
10
0&
13
02
1.
0-
1$
0%
#720000
1!
0"
0#
1/
01
00
1&
03
12
0.
1-
0$
1%
#740000
1#
10
0&
13
02
1.
0-
1$
0%
#760000
1"
0#
11
00
1&
#780000
1#
10
0&
12
1-
1%
#800000
0!
0"
0#
0/
01
00
1&
03
02
0.
0-
0$
0%
#820000
1#
10
0&
12
1-
1%
#840000
1"
0#
11
00
1&
#860000
1#
10
0&
13
02
1.
0-
1$
0%
#880000
1!
0"
0#
1/
01
00
1&
03
12
0.
1-
0$
1%
#900000
1#
10
0&
13
02
1.
0-
1$
0%
#920000
1"
0#
11
00
1&
#940000
1#
10
0&
12
1-
1%
#960000
0!
0"
0#
0/
01
00
1&
03
02
0.
0-
0$
0%
#980000
1#
10
0&
12
1-
1%
