Exp5_2/simulation/qsim/Exp52.msim.vcd
$comment
	File created using the following command:
		vcd file Exp52.msim.vcd -direction
$end
$date
	Tue Dec 10 10:19:56 2024
$end
$version
	ModelSim Version 10.1d
$end
$timescale
	1ps
$end
$scope module Exp52_vlg_vec_tst $end
$var reg 1 ! A $end
$var reg 1 " B $end
$var reg 1 # CIN $end
$var wire 1 $ cout $end
$var wire 1 % s $end
$var wire 1 & sampler $end
$scope module i1 $end
$var wire 1 ' gnd $end
$var wire 1 ( vcc $end
$var wire 1 ) unknown $end
$var tri1 1 * devclrn $end
$var tri1 1 + devpor $end
$var tri1 1 , devoe $end
$var wire 1 - s~output_o $end
$var wire 1 . cout~output_o $end
$var wire 1 / CIN~input_o $end
$var wire 1 0 B~input_o $end
$var wire 1 1 A~input_o $end
$var wire 1 2 inst|Add1~0_combout $end
$var wire 1 3 inst|Add1~1_combout $end
$upscope $end
$upscope $end
$enddefinitions $end
#0
$dumpvars
0!
0"
0#
0$
0%
x&
0'
1(
x)
1*
1+
1,
0-
0.
0/
00
01
02
03
$end
#20000
1#
1/
0&
12
1-
1%
#40000
1"
0#
10
0/
1&
#60000
1#
1/
0&
13
02
1.
0-
1$
0%
#80000
1!
0"
0#
11
00
0/
1&
03
12
0.
1-
0$
1%
#100000
1#
1/
0&
13
02
1.
0-
1$
0%
#120000
1"
0#
10
0/
1&
#140000
1#
1/
0&
12
1-
1%
#160000
0!
0"
0#
01
00
0/
1&
03
02
0.
0-
0$
0%
#180000
1#
1/
0&
12
1-
1%
#200000
1"
0#
10
0/
1&
#220000
1#
1/
0&
13
02
1.
0-
1$
0%
#240000
1!
0"
0#
11
00
0/
1&
03
12
0.
1-
0$
1%
#260000
1#
1/
0&
13
02
1.
0-
1$
0%
#280000
1"
0#
10
0/
1&
#300000
1#
1/
0&
12
1-
1%
#320000
0!
0"
0#
01
00
0/
1&
03
02
0.
0-
0$
0%
#340000
1#
1/
0&
12
1-
1%
#360000
1"
0#
10
0/
1&
#380000
1#
1/
0&
13
02
1.
0-
1$
0%
#400000
1!
0"
0#
11
00
0/
1&
03
12
0.
1-
0$
1%
#420000
1#
1/
0&
13
02
1.
0-
1$
0%
#440000
1"
0#
10
0/
1&
#460000
1#
1/
0&
12
1-
1%
#480000
0!
0"
0#
01
00
0/
1&
03
02
0.
0-
0$
0%
#500000
1#
1/
0&
12
1-
1%
#520000
1"
0#
10
0/
1&
#540000
1#
1/
0&
13
02
1.
0-
1$
0%
#560000
1!
0"
0#
11
00
0/
1&
03
12
0.
1-
0$
1%
#580000
1#
1/
0&
13
02
1.
0-
1$
0%
#600000
1"
0#
10
0/
1&
#620000
1#
1/
0&
12
1-
1%
#640000
0!
0"
0#
01
00
0/
1&
03
02
0.
0-
0$
0%
#660000
1#
1/
0&
12
1-
1%
#680000
1"
0#
10
0/
1&
#700000
1#
1/
0&
13
02
1.
0-
1$
0%
#720000
1!
0"
0#
11
00
0/
1&
03
12
0.
1-
0$
1%
#740000
1#
1/
0&
13
02
1.
0-
1$
0%
#760000
1"
0#
10
0/
1&
#780000
1#
1/
0&
12
1-
1%
#800000
0!
0"
0#
01
00
0/
1&
03
02
0.
0-
0$
0%
#820000
1#
1/
0&
12
1-
1%
#840000
1"
0#
10
0/
1&
#860000
1#
1/
0&
13
02
1.
0-
1$
0%
#880000
1!
0"
0#
11
00
0/
1&
03
12
0.
1-
0$
1%
#900000
1#
1/
0&
13
02
1.
0-
1$
0%
#920000
1"
0#
10
0/
1&
#940000
1#
1/
0&
12
1-
1%
#960000
0!
0"
0#
01
00
0/
1&
03
02
0.
0-
0$
0%
#980000
1#
1/
0&
12
1-
1%
