Exp6_3/simulation/qsim/Pre3.msim.vcd
$comment
	File created using the following command:
		vcd file Pre3.msim.vcd -direction
$end
$date
	Thu Dec 19 07:50:35 2024
$end
$version
	ModelSim Version 10.1d
$end
$timescale
	1ps
$end
$scope module Pre3_vlg_vec_tst $end
$var reg 10 ! SW [9:0] $end
$var wire 1 " LEDG [3] $end
$var wire 1 # LEDG [2] $end
$var wire 1 $ LEDG [1] $end
$var wire 1 % LEDG [0] $end
$var wire 1 & LEDR [9] $end
$var wire 1 ' LEDR [8] $end
$var wire 1 ( LEDR [7] $end
$var wire 1 ) LEDR [6] $end
$var wire 1 * LEDR [5] $end
$var wire 1 + LEDR [4] $end
$var wire 1 , LEDR [3] $end
$var wire 1 - LEDR [2] $end
$var wire 1 . LEDR [1] $end
$var wire 1 / LEDR [0] $end
$var wire 1 0 sampler $end
$scope module i1 $end
$var wire 1 1 gnd $end
$var wire 1 2 vcc $end
$var wire 1 3 unknown $end
$var tri1 1 4 devclrn $end
$var tri1 1 5 devpor $end
$var tri1 1 6 devoe $end
$var wire 1 7 SW[9]~input_o $end
$var wire 1 8 LEDG[3]~output_o $end
$var wire 1 9 LEDG[2]~output_o $end
$var wire 1 : LEDG[1]~output_o $end
$var wire 1 ; LEDG[0]~output_o $end
$var wire 1 < LEDR[9]~output_o $end
$var wire 1 = LEDR[8]~output_o $end
$var wire 1 > LEDR[7]~output_o $end
$var wire 1 ? LEDR[6]~output_o $end
$var wire 1 @ LEDR[5]~output_o $end
$var wire 1 A LEDR[4]~output_o $end
$var wire 1 B LEDR[3]~output_o $end
$var wire 1 C LEDR[2]~output_o $end
$var wire 1 D LEDR[1]~output_o $end
$var wire 1 E LEDR[0]~output_o $end
$var wire 1 F SW[1]~input_o $end
$var wire 1 G SW[0]~input_o $end
$var wire 1 H inst1|a~0_combout $end
$var wire 1 I SW[2]~input_o $end
$var wire 1 J SW[5]~input_o $end
$var wire 1 K SW[4]~input_o $end
$var wire 1 L SW[3]~input_o $end
$var wire 1 M inst1|b~0_combout $end
$var wire 1 N inst1|b~1_combout $end
$var wire 1 O SW[6]~input_o $end
$var wire 1 P SW[7]~input_o $end
$var wire 1 Q inst1|c~0_combout $end
$var wire 1 R SW[8]~input_o $end
$var wire 1 S inst1|d~0_combout $end
$var wire 1 T inst|saida[9]~4_combout $end
$var wire 1 U inst|saida[7]~5_combout $end
$var wire 1 V inst|saida[6]~6_combout $end
$var wire 1 W inst|saida[5]~7_combout $end
$var wire 1 X inst|saida[4]~8_combout $end
$var wire 1 Y inst|saida[3]~9_combout $end
$var wire 1 Z inst|saida[2]~10_combout $end
$var wire 1 [ inst|saida[1]~11_combout $end
$var wire 1 \ inst|saida[0]~12_combout $end
$var wire 1 ] inst|saida [9] $end
$var wire 1 ^ inst|saida [8] $end
$var wire 1 _ inst|saida [7] $end
$var wire 1 ` inst|saida [6] $end
$var wire 1 a inst|saida [5] $end
$var wire 1 b inst|saida [4] $end
$var wire 1 c inst|saida [3] $end
$var wire 1 d inst|saida [2] $end
$var wire 1 e inst|saida [1] $end
$var wire 1 f inst|saida [0] $end
$upscope $end
$upscope $end
$enddefinitions $end
#0
$dumpvars
b0 !
x%
x$
x#
x"
x/
x.
x-
x,
x+
x*
x)
x(
x'
x&
x0
01
12
x3
14
15
16
07
x8
x9
x:
x;
x<
x=
x>
x?
x@
xA
xB
xC
xD
xE
0F
0G
xH
0I
0J
0K
0L
xM
xN
0O
0P
xQ
0R
xS
xT
xU
xV
xW
xX
xY
xZ
x[
x\
zf
ze
zd
zc
zb
za
z`
z_
x^
z]
$end
#4253
0[
0\
#4355
0Q
#4378
1M
#4429
1H
#4948
1S
#4992
1N
#5021
0U
#5025
0V
#5055
0W
#5074
0X
#5348
0Z
#5426
0Y
#5430
0^
#5571
0T
#7929
0E
0/
#8411
0;
0%
#8632
0:
0$
#8910
0>
0(
#8940
0B
0,
#8997
0D
0.
#9042
0A
0+
#9066
08
0"
#9485
0C
0-
#9592
09
0#
#9639
0@
0*
#9741
0=
0'
#9793
1<
1&
#10000
b1000000000 !
17
00
#10745
0?
0)
#30000
b1100000000 !
b100000000 !
07
10
#30515
1R
#32271
1T
#32560
0S
#33093
1^
#35926
1;
1%
#36527
0<
0&
#37452
1=
1'
#50000
b110000000 !
b10000000 !
00
#50497
1P
#50688
0R
#52402
0T
#52696
1S
#53178
0^
#54142
0S
#54159
1Q
#54413
1T
#54753
1U
#57489
0=
0'
#58507
1:
1$
#58720
1>
1(
#70000
b11000000 !
b1000000 !
10
#70507
1O
#70671
0P
#74622
1S
#75099
1V
#75101
0U
#78085
0;
0%
#78990
0>
0(
#80839
1?
1)
#90000
b1100000 !
b100000 !
00
#90507
1J
#90681
0O
#94017
0N
#94412
0V
#94424
1W
#98547
19
1#
#99057
1@
1*
#100132
0?
0)
#110000
b110000 !
b10000 !
10
#110507
1K
#110681
0J
#114457
1N
#114580
0M
#114813
0W
#114821
1V
#114909
0N
#115036
0T
#115181
0S
#115304
0V
#115316
1W
#115506
1T
#115712
0W
#115713
1X
#118547
1;
1%
#119793
1A
1+
#120296
0@
0*
#130000
b11000 !
b1000 !
00
#130507
1L
#130681
0K
#135036
0Q
#135755
0X
#135768
1Y
#139313
0:
0$
#139387
1B
1,
#139723
0A
0+
#150000
b1100 !
b100 !
10
#150517
1I
#150681
0L
#154834
1M
#155404
1S
#155882
0Y
#155886
1Z
#158867
0;
0%
#159396
0B
0,
#160067
1C
1-
#170000
b110 !
b10 !
00
#170517
1F
#170691
0I
#174436
1[
#174607
0H
#175230
0Z
#179169
18
1"
#179206
1D
1.
#179367
0C
0-
#190000
b11 !
b1 !
10
#190517
1G
#190691
0F
#194328
0S
#194811
0[
#194821
1\
#197694
1;
1%
#198600
1E
1/
#199555
0D
0.
#210000
b0 !
00
#210691
0G
#214812
1S
#214816
1H
#214953
0\
#215379
1N
#215416
1Z
#215735
0Z
#215958
0T
#218275
0;
0%
#218629
0E
0/
#219453
08
0"
#219979
09
0#
#220180
1<
1&
