Exp9_1/simulation/qsim/timer.msim.vcd
$comment
	File created using the following command:
		vcd file timer.msim.vcd -direction
$end
$date
	Mon Jan 27 18:19:39 2025
$end
$version
	ModelSim Version 10.1d
$end
$timescale
	1ps
$end
$scope module timer_vlg_vec_tst $end
$var reg 1 ! CLOCK_50 $end
$var reg 1 " RESET $end
$var reg 1 # STOP $end
$var wire 1 $ HEX0 [6] $end
$var wire 1 % HEX0 [5] $end
$var wire 1 & HEX0 [4] $end
$var wire 1 ' HEX0 [3] $end
$var wire 1 ( HEX0 [2] $end
$var wire 1 ) HEX0 [1] $end
$var wire 1 * HEX0 [0] $end
$var wire 1 + HEX1 [6] $end
$var wire 1 , HEX1 [5] $end
$var wire 1 - HEX1 [4] $end
$var wire 1 . HEX1 [3] $end
$var wire 1 / HEX1 [2] $end
$var wire 1 0 HEX1 [1] $end
$var wire 1 1 HEX1 [0] $end
$var wire 1 2 HEX2 [6] $end
$var wire 1 3 HEX2 [5] $end
$var wire 1 4 HEX2 [4] $end
$var wire 1 5 HEX2 [3] $end
$var wire 1 6 HEX2 [2] $end
$var wire 1 7 HEX2 [1] $end
$var wire 1 8 HEX2 [0] $end
$var wire 1 9 HEX3 [6] $end
$var wire 1 : HEX3 [5] $end
$var wire 1 ; HEX3 [4] $end
$var wire 1 < HEX3 [3] $end
$var wire 1 = HEX3 [2] $end
$var wire 1 > HEX3 [1] $end
$var wire 1 ? HEX3 [0] $end
$var wire 1 @ test [3] $end
$var wire 1 A test [2] $end
$var wire 1 B test [1] $end
$var wire 1 C test [0] $end
$var wire 1 D sampler $end
$scope module i1 $end
$var wire 1 E gnd $end
$var wire 1 F vcc $end
$var wire 1 G unknown $end
$var tri1 1 H devclrn $end
$var tri1 1 I devpor $end
$var tri1 1 J devoe $end
$var wire 1 K HEX0[6]~output_o $end
$var wire 1 L HEX0[5]~output_o $end
$var wire 1 M HEX0[4]~output_o $end
$var wire 1 N HEX0[3]~output_o $end
$var wire 1 O HEX0[2]~output_o $end
$var wire 1 P HEX0[1]~output_o $end
$var wire 1 Q HEX0[0]~output_o $end
$var wire 1 R HEX1[6]~output_o $end
$var wire 1 S HEX1[5]~output_o $end
$var wire 1 T HEX1[4]~output_o $end
$var wire 1 U HEX1[3]~output_o $end
$var wire 1 V HEX1[2]~output_o $end
$var wire 1 W HEX1[1]~output_o $end
$var wire 1 X HEX1[0]~output_o $end
$var wire 1 Y HEX2[6]~output_o $end
$var wire 1 Z HEX2[5]~output_o $end
$var wire 1 [ HEX2[4]~output_o $end
$var wire 1 \ HEX2[3]~output_o $end
$var wire 1 ] HEX2[2]~output_o $end
$var wire 1 ^ HEX2[1]~output_o $end
$var wire 1 _ HEX2[0]~output_o $end
$var wire 1 ` HEX3[6]~output_o $end
$var wire 1 a HEX3[5]~output_o $end
$var wire 1 b HEX3[4]~output_o $end
$var wire 1 c HEX3[3]~output_o $end
$var wire 1 d HEX3[2]~output_o $end
$var wire 1 e HEX3[1]~output_o $end
$var wire 1 f HEX3[0]~output_o $end
$var wire 1 g test[3]~output_o $end
$var wire 1 h test[2]~output_o $end
$var wire 1 i test[1]~output_o $end
$var wire 1 j test[0]~output_o $end
$var wire 1 k STOP~input_o $end
$var wire 1 l CLOCK_50~input_o $end
$var wire 1 m inst|q[0]~3_combout $end
$var wire 1 n RESET~input_o $end
$var wire 1 o RESET~inputclkctrl_outclk $end
$var wire 1 p inst|q[2]~1_combout $end
$var wire 1 q inst|q~0_combout $end
$var wire 1 r inst|Equal0~0_combout $end
$var wire 1 s inst|clkout~q $end
$var wire 1 t inst|clkout~clkctrl_outclk $end
$var wire 1 u inst5|Add0~0_combout $end
$var wire 1 v inst5|Add0~1 $end
$var wire 1 w inst5|Add0~2_combout $end
$var wire 1 x inst5|Add0~3 $end
$var wire 1 y inst5|Add0~4_combout $end
$var wire 1 z inst5|q~3_combout $end
$var wire 1 { inst5|Add0~5 $end
$var wire 1 | inst5|Add0~6_combout $end
$var wire 1 } inst5|q~2_combout $end
$var wire 1 ~ inst5|Add0~7 $end
$var wire 1 !! inst5|Add0~8_combout $end
$var wire 1 "! inst5|q~1_combout $end
$var wire 1 #! inst5|Add0~9 $end
$var wire 1 $! inst5|Add0~10_combout $end
$var wire 1 %! inst5|q~0_combout $end
$var wire 1 &! inst5|Equal0~0_combout $end
$var wire 1 '! inst5|Equal0~1_combout $end
$var wire 1 (! inst5|clkout~q $end
$var wire 1 )! inst5|clkout~clkctrl_outclk $end
$var wire 1 *! inst6|q[2]~2_combout $end
$var wire 1 +! inst6|q[3]~3_combout $end
$var wire 1 ,! inst6|q[0]~0_combout $end
$var wire 1 -! inst6|q[1]~1_combout $end
$var wire 1 .! inst6|Equal0~0_combout $end
$var wire 1 /! inst6|explosion~q $end
$var wire 1 0! inst28|choice~combout $end
$var wire 1 1! inst28|choice~clkctrl_outclk $end
$var wire 1 2! inst|q~2_combout $end
$var wire 1 3! inst1|WideOr0~0_combout $end
$var wire 1 4! inst1|WideOr1~0_combout $end
$var wire 1 5! inst1|WideOr2~0_combout $end
$var wire 1 6! inst1|WideOr3~0_combout $end
$var wire 1 7! inst1|WideOr4~0_combout $end
$var wire 1 8! inst1|WideOr5~0_combout $end
$var wire 1 9! inst1|WideOr6~0_combout $end
$var wire 1 :! inst7|Mod0|auto_generated|divider|divider|add_sub_3_result_int[1]~1 $end
$var wire 1 ;! inst7|Mod0|auto_generated|divider|divider|add_sub_3_result_int[2]~3 $end
$var wire 1 <! inst7|Mod0|auto_generated|divider|divider|add_sub_3_result_int[3]~5 $end
$var wire 1 =! inst7|Mod0|auto_generated|divider|divider|add_sub_3_result_int[4]~6_combout $end
$var wire 1 >! inst7|Mod0|auto_generated|divider|divider|StageOut[18]~16_combout $end
$var wire 1 ?! inst7|Mod0|auto_generated|divider|divider|add_sub_3_result_int[3]~4_combout $end
$var wire 1 @! inst7|Mod0|auto_generated|divider|divider|StageOut[18]~17_combout $end
$var wire 1 A! inst7|Mod0|auto_generated|divider|divider|StageOut[17]~18_combout $end
$var wire 1 B! inst7|Mod0|auto_generated|divider|divider|add_sub_3_result_int[2]~2_combout $end
$var wire 1 C! inst7|Mod0|auto_generated|divider|divider|StageOut[17]~19_combout $end
$var wire 1 D! inst7|Mod0|auto_generated|divider|divider|StageOut[16]~20_combout $end
$var wire 1 E! inst7|Mod0|auto_generated|divider|divider|add_sub_3_result_int[1]~0_combout $end
$var wire 1 F! inst7|Mod0|auto_generated|divider|divider|StageOut[16]~21_combout $end
$var wire 1 G! inst7|Mod0|auto_generated|divider|divider|StageOut[15]~22_combout $end
$var wire 1 H! inst7|Mod0|auto_generated|divider|divider|StageOut[15]~23_combout $end
$var wire 1 I! inst7|Mod0|auto_generated|divider|divider|add_sub_4_result_int[1]~1 $end
$var wire 1 J! inst7|Mod0|auto_generated|divider|divider|add_sub_4_result_int[2]~3 $end
$var wire 1 K! inst7|Mod0|auto_generated|divider|divider|add_sub_4_result_int[3]~5 $end
$var wire 1 L! inst7|Mod0|auto_generated|divider|divider|add_sub_4_result_int[4]~7_cout $end
$var wire 1 M! inst7|Mod0|auto_generated|divider|divider|add_sub_4_result_int[5]~8_combout $end
$var wire 1 N! inst7|Mod0|auto_generated|divider|divider|StageOut[20]~25_combout $end
$var wire 1 O! inst7|Mod0|auto_generated|divider|divider|StageOut[20]~24_combout $end
$var wire 1 P! inst7|Mod0|auto_generated|divider|divider|add_sub_5_result_int[1]~0_combout $end
$var wire 1 Q! inst7|Mod0|auto_generated|divider|divider|add_sub_4_result_int[3]~4_combout $end
$var wire 1 R! inst7|Mod0|auto_generated|divider|divider|StageOut[23]~26_combout $end
$var wire 1 S! inst7|Mod0|auto_generated|divider|divider|StageOut[23]~33_combout $end
$var wire 1 T! inst7|Mod0|auto_generated|divider|divider|add_sub_4_result_int[2]~2_combout $end
$var wire 1 U! inst7|Mod0|auto_generated|divider|divider|StageOut[22]~27_combout $end
$var wire 1 V! inst7|Mod0|auto_generated|divider|divider|StageOut[22]~34_combout $end
$var wire 1 W! inst7|Mod0|auto_generated|divider|divider|add_sub_4_result_int[1]~0_combout $end
$var wire 1 X! inst7|Mod0|auto_generated|divider|divider|StageOut[21]~29_combout $end
$var wire 1 Y! inst7|Mod0|auto_generated|divider|divider|StageOut[21]~28_combout $end
$var wire 1 Z! inst7|Mod0|auto_generated|divider|divider|add_sub_5_result_int[1]~1 $end
$var wire 1 [! inst7|Mod0|auto_generated|divider|divider|add_sub_5_result_int[2]~3 $end
$var wire 1 \! inst7|Mod0|auto_generated|divider|divider|add_sub_5_result_int[3]~5 $end
$var wire 1 ]! inst7|Mod0|auto_generated|divider|divider|add_sub_5_result_int[4]~7_cout $end
$var wire 1 ^! inst7|Mod0|auto_generated|divider|divider|add_sub_5_result_int[5]~8_combout $end
$var wire 1 _! inst7|Mod0|auto_generated|divider|divider|StageOut[26]~30_combout $end
$var wire 1 `! inst7|Mod0|auto_generated|divider|divider|add_sub_5_result_int[3]~4_combout $end
$var wire 1 a! inst7|Mod0|auto_generated|divider|divider|StageOut[28]~32_combout $end
$var wire 1 b! inst7|Mod0|auto_generated|divider|divider|add_sub_5_result_int[2]~2_combout $end
$var wire 1 c! inst7|Mod0|auto_generated|divider|divider|StageOut[27]~31_combout $end
$var wire 1 d! inst4|WideOr0~0_combout $end
$var wire 1 e! inst4|WideOr1~0_combout $end
$var wire 1 f! inst4|WideOr2~0_combout $end
$var wire 1 g! inst4|WideOr3~0_combout $end
$var wire 1 h! inst4|WideOr4~0_combout $end
$var wire 1 i! inst4|WideOr5~0_combout $end
$var wire 1 j! inst4|WideOr6~0_combout $end
$var wire 1 k! inst7|Div0|auto_generated|divider|divider|add_sub_3_result_int[1]~1 $end
$var wire 1 l! inst7|Div0|auto_generated|divider|divider|add_sub_3_result_int[2]~3 $end
$var wire 1 m! inst7|Div0|auto_generated|divider|divider|add_sub_3_result_int[3]~4_combout $end
$var wire 1 n! inst7|Div0|auto_generated|divider|divider|add_sub_3_result_int[3]~5 $end
$var wire 1 o! inst7|Div0|auto_generated|divider|divider|add_sub_3_result_int[4]~6_combout $end
$var wire 1 p! inst7|Div0|auto_generated|divider|divider|StageOut[18]~17_combout $end
$var wire 1 q! inst7|Div0|auto_generated|divider|divider|StageOut[18]~16_combout $end
$var wire 1 r! inst7|Div0|auto_generated|divider|divider|add_sub_3_result_int[2]~2_combout $end
$var wire 1 s! inst7|Div0|auto_generated|divider|divider|StageOut[17]~19_combout $end
$var wire 1 t! inst7|Div0|auto_generated|divider|divider|StageOut[17]~18_combout $end
$var wire 1 u! inst7|Div0|auto_generated|divider|divider|add_sub_3_result_int[1]~0_combout $end
$var wire 1 v! inst7|Div0|auto_generated|divider|divider|StageOut[16]~21_combout $end
$var wire 1 w! inst7|Div0|auto_generated|divider|divider|StageOut[16]~20_combout $end
$var wire 1 x! inst7|Div0|auto_generated|divider|divider|StageOut[15]~23_combout $end
$var wire 1 y! inst7|Div0|auto_generated|divider|divider|StageOut[15]~22_combout $end
$var wire 1 z! inst7|Div0|auto_generated|divider|divider|add_sub_4_result_int[1]~1 $end
$var wire 1 {! inst7|Div0|auto_generated|divider|divider|add_sub_4_result_int[2]~3 $end
$var wire 1 |! inst7|Div0|auto_generated|divider|divider|add_sub_4_result_int[3]~5 $end
$var wire 1 }! inst7|Div0|auto_generated|divider|divider|add_sub_4_result_int[4]~7_cout $end
$var wire 1 ~! inst7|Div0|auto_generated|divider|divider|add_sub_4_result_int[5]~8_combout $end
$var wire 1 !" inst7|Div0|auto_generated|divider|divider|add_sub_4_result_int[3]~4_combout $end
$var wire 1 "" inst7|Div0|auto_generated|divider|divider|StageOut[23]~24_combout $end
$var wire 1 #" inst7|Div0|auto_generated|divider|divider|StageOut[23]~30_combout $end
$var wire 1 $" inst7|Div0|auto_generated|divider|divider|add_sub_4_result_int[2]~2_combout $end
$var wire 1 %" inst7|Div0|auto_generated|divider|divider|StageOut[22]~25_combout $end
$var wire 1 &" inst7|Div0|auto_generated|divider|divider|StageOut[22]~31_combout $end
$var wire 1 '" inst7|Div0|auto_generated|divider|divider|add_sub_4_result_int[1]~0_combout $end
$var wire 1 (" inst7|Div0|auto_generated|divider|divider|StageOut[21]~27_combout $end
$var wire 1 )" inst7|Div0|auto_generated|divider|divider|StageOut[21]~26_combout $end
$var wire 1 *" inst7|Div0|auto_generated|divider|divider|StageOut[20]~29_combout $end
$var wire 1 +" inst7|Div0|auto_generated|divider|divider|StageOut[20]~28_combout $end
$var wire 1 ," inst7|Div0|auto_generated|divider|divider|add_sub_5_result_int[1]~1_cout $end
$var wire 1 -" inst7|Div0|auto_generated|divider|divider|add_sub_5_result_int[2]~3_cout $end
$var wire 1 ." inst7|Div0|auto_generated|divider|divider|add_sub_5_result_int[3]~5_cout $end
$var wire 1 /" inst7|Div0|auto_generated|divider|divider|add_sub_5_result_int[4]~7_cout $end
$var wire 1 0" inst7|Div0|auto_generated|divider|divider|add_sub_5_result_int[5]~8_combout $end
$var wire 1 1" inst3|WideOr0~0_combout $end
$var wire 1 2" inst3|WideOr1~0_combout $end
$var wire 1 3" inst3|WideOr2~0_combout $end
$var wire 1 4" inst3|WideOr3~0_combout $end
$var wire 1 5" inst3|WideOr4~0_combout $end
$var wire 1 6" inst3|WideOr5~0_combout $end
$var wire 1 7" inst3|WideOr6~0_combout $end
$var wire 1 8" inst2|WideOr0~0_combout $end
$var wire 1 9" inst2|WideOr1~0_combout $end
$var wire 1 :" inst2|WideOr2~0_combout $end
$var wire 1 ;" inst2|WideOr3~0_combout $end
$var wire 1 <" inst2|WideOr4~0_combout $end
$var wire 1 =" inst2|WideOr5~0_combout $end
$var wire 1 >" inst2|WideOr6~0_combout $end
$var wire 1 ?" inst6|q [3] $end
$var wire 1 @" inst6|q [2] $end
$var wire 1 A" inst6|q [1] $end
$var wire 1 B" inst6|q [0] $end
$var wire 1 C" inst|q [3] $end
$var wire 1 D" inst|q [2] $end
$var wire 1 E" inst|q [1] $end
$var wire 1 F" inst|q [0] $end
$var wire 1 G" inst5|q [5] $end
$var wire 1 H" inst5|q [4] $end
$var wire 1 I" inst5|q [3] $end
$var wire 1 J" inst5|q [2] $end
$var wire 1 K" inst5|q [1] $end
$var wire 1 L" inst5|q [0] $end
$upscope $end
$upscope $end
$enddefinitions $end
#0
$dumpvars
0!
1"
0#
0*
0)
0(
0'
0&
0%
1$
01
00
0/
0.
0-
0,
1+
08
07
06
05
04
03
12
0?
0>
0=
0<
0;
0:
19
0C
0B
0A
0@
xD
0E
1F
xG
1H
1I
1J
1K
0L
0M
0N
0O
0P
0Q
1R
0S
0T
0U
0V
0W
0X
1Y
0Z
0[
0\
0]
0^
0_
1`
0a
0b
0c
0d
0e
0f
0g
0h
0i
0j
0k
0l
1m
1n
1o
0p
0q
0r
0s
0t
1u
0v
0w
1x
0y
0z
0{
0|
0}
1~
0!!
0"!
0#!
0$!
0%!
0&!
0'!
0(!
0)!
0*!
0+!
1,!
0-!
0.!
0/!
00!
01!
02!
03!
04!
05!
06!
07!
08!
09!
0:!
1;!
0<!
1=!
0>!
0?!
0@!
0A!
1B!
0C!
0D!
1E!
0F!
0G!
0H!
0I!
1J!
0K!
1L!
1M!
0N!
0O!
1P!
0Q!
0R!
0S!
1T!
0U!
0V!
1W!
0X!
0Y!
0Z!
1[!
0\!
1]!
1^!
0_!
0`!
0a!
1b!
0c!
0d!
0e!
0f!
0g!
0h!
0i!
0j!
0k!
1l!
0m!
0n!
1o!
0p!
0q!
1r!
0s!
0t!
1u!
0v!
0w!
0x!
0y!
0z!
1{!
0|!
1}!
1~!
0!"
0""
0#"
1$"
0%"
0&"
1'"
0("
0)"
0*"
0+"
0,"
1-"
0."
1/"
10"
01"
02"
03"
04"
05"
06"
07"
08"
09"
0:"
0;"
0<"
0="
0>"
0B"
0A"
0@"
0?"
0F"
0E"
0D"
0C"
0L"
0K"
0J"
0I"
0H"
0G"
$end
#10000
1!
1l
0D
10!
11!
#20000
0!
0l
1D
00!
01!
#30000
1!
1l
0D
10!
11!
#40000
0"
0!
0n
0l
0o
1D
00!
01!
#50000
1!
1l
0D
10!
11!
1F"
1q
0m
1j
1C
19!
16!
15!
14!
1Q
1N
1M
1L
1*
1'
1&
1%
#60000
0!
0l
1D
00!
01!
#70000
1!
1l
0D
10!
11!
1E"
0F"
13!
1m
1i
0j
1B
0C
09!
17!
06!
05!
0K
0Q
1O
0N
0M
0$
0*
1(
0'
0&
#80000
0!
0l
1D
00!
01!
#90000
1!
1l
0D
10!
11!
1F"
0q
1p
0m
1j
1C
07!
15!
0O
1M
0(
1&
#100000
0!
0l
1D
00!
01!
#110000
1!
1l
0D
10!
11!
0E"
1D"
0F"
1m
0i
1h
0j
0B
1A
0C
19!
16!
04!
1Q
1N
0L
1*
1'
0%
#120000
0!
0l
1D
00!
01!
#130000
1!
1l
0D
10!
11!
1F"
1q
0m
1j
1C
09!
18!
06!
0Q
1P
0N
0*
1)
0'
#140000
0!
0l
1D
00!
01!
#150000
1!
1l
0D
10!
11!
1E"
0F"
1m
1i
0j
1B
0C
05!
0M
0&
#160000
0!
0l
1D
00!
01!
#170000
1!
1l
0D
10!
11!
1F"
03!
12!
0q
0p
0m
1j
1C
08!
16!
15!
14!
1K
0P
1N
1M
1L
1$
0)
1'
1&
1%
#180000
0!
0l
1D
00!
01!
#190000
1#
1!
1k
1l
0D
#200000
0!
0l
1D
#210000
1!
1l
0D
#220000
0!
0l
1D
#230000
1!
1l
0D
#240000
0!
0l
1D
#250000
0#
1!
0k
1l
0D
10!
11!
1C"
0E"
0D"
0F"
13!
1m
1g
0i
0h
0j
1@
0B
0A
0C
06!
05!
04!
0K
0N
0M
0L
0$
0'
0&
0%
#260000
0!
0l
1D
00!
01!
#270000
1!
1l
0D
10!
11!
1F"
02!
1r
0m
1j
1C
15!
1M
1&
#280000
0!
0l
1D
00!
01!
#290000
1!
1l
0D
10!
11!
1s
1t
0C"
0F"
03!
0r
1m
0g
0j
0@
0C
05!
1K
0M
1$
0&
1L"
1v
0u
1j!
1g!
1f!
1e!
1w
1X
1U
1T
1S
11
1.
1-
1,
#300000
0!
0l
1D
00!
01!
#310000
1!
1l
0D
10!
11!
0s
0t
1F"
1q
0m
1j
1C
19!
16!
15!
14!
1Q
1N
1M
1L
1*
1'
1&
1%
#320000
0!
0l
1D
00!
01!
#330000
1!
1l
0D
10!
11!
1E"
0F"
13!
1m
1i
0j
1B
0C
09!
17!
06!
05!
0K
0Q
1O
0N
0M
0$
0*
1(
0'
0&
#340000
0!
0l
1D
00!
01!
#350000
1!
1l
0D
10!
11!
1F"
0q
1p
0m
1j
1C
07!
15!
0O
1M
0(
1&
#360000
0!
0l
1D
00!
01!
#370000
1!
1l
0D
10!
11!
0E"
1D"
0F"
1m
0i
1h
0j
0B
1A
0C
19!
16!
04!
1Q
1N
0L
1*
1'
0%
#380000
0!
0l
1D
00!
01!
#390000
1!
1l
0D
10!
11!
1F"
1q
0m
1j
1C
09!
18!
06!
0Q
1P
0N
0*
1)
0'
#400000
0!
0l
1D
00!
01!
#410000
1!
1l
0D
10!
11!
1E"
0F"
1m
1i
0j
1B
0C
05!
0M
0&
#420000
0!
0l
1D
00!
01!
#430000
1!
1l
0D
10!
11!
1F"
03!
12!
0q
0p
0m
1j
1C
08!
16!
15!
14!
1K
0P
1N
1M
1L
1$
0)
1'
1&
1%
#440000
0!
0l
1D
00!
01!
#450000
1!
1l
0D
10!
11!
1C"
0E"
0D"
0F"
13!
1m
1g
0i
0h
0j
1@
0B
0A
0C
06!
05!
04!
0K
0N
0M
0L
0$
0'
0&
0%
#460000
0!
0l
1D
00!
01!
#470000
1!
1l
0D
10!
11!
1F"
02!
1r
0m
1j
1C
15!
1M
1&
#480000
0!
0l
1D
00!
01!
#490000
1!
1l
0D
10!
11!
1s
1t
0C"
0F"
03!
0r
1m
0g
0j
0@
0C
05!
1K
0M
1$
0&
1K"
0L"
1+"
1_!
1O!
0x
0w
0v
1u
0j!
0g!
0f!
0e!
1,"
1d!
1Z!
0P!
1y
1x
1w
0X
0U
0T
0S
01
0.
0-
0,
1h!
1e!
0-"
0[!
0b!
1z
0y
0R
1V
1S
0+
1/
1,
1`!
0z
#500000
0!
0l
1D
00!
01!
#510000
1!
1l
0D
10!
11!
0s
0t
1F"
1q
0m
1j
1C
19!
16!
15!
14!
1Q
1N
1M
1L
1*
1'
1&
1%
#520000
0!
0l
1D
00!
01!
#530000
1!
1l
0D
10!
11!
1E"
0F"
13!
1m
1i
0j
1B
0C
09!
17!
06!
05!
0K
0Q
1O
0N
0M
0$
0*
1(
0'
0&
#540000
0!
0l
1D
00!
01!
#550000
1!
1l
0D
10!
11!
1F"
0q
1p
0m
1j
1C
07!
15!
0O
1M
0(
1&
#560000
0!
0l
1D
00!
01!
#570000
1!
1l
0D
10!
11!
0E"
1D"
0F"
1m
0i
1h
0j
0B
1A
0C
19!
16!
04!
1Q
1N
0L
1*
1'
0%
#580000
0!
0l
1D
00!
01!
#590000
1!
1l
0D
10!
11!
1F"
1q
0m
1j
1C
09!
18!
06!
0Q
1P
0N
0*
1)
0'
#600000
0!
0l
1D
00!
01!
#610000
1!
1l
0D
10!
11!
1E"
0F"
1m
1i
0j
1B
0C
05!
0M
0&
#620000
0!
0l
1D
00!
01!
#630000
1!
1l
0D
10!
11!
1F"
03!
12!
0q
0p
0m
1j
1C
08!
16!
15!
14!
1K
0P
1N
1M
1L
1$
0)
1'
1&
1%
#640000
0!
0l
1D
00!
01!
#650000
1!
1l
0D
10!
11!
1C"
0E"
0D"
0F"
13!
1m
1g
0i
0h
0j
1@
0B
0A
0C
06!
05!
04!
0K
0N
0M
0L
0$
0'
0&
0%
#660000
0!
0l
1D
00!
01!
#670000
1!
1l
0D
10!
11!
1F"
02!
1r
0m
1j
1C
15!
1M
1&
#680000
0!
0l
1D
00!
01!
#690000
1!
1l
0D
10!
11!
1s
1t
0C"
0F"
03!
0r
1m
0g
0j
0@
0C
05!
1K
0M
1$
0&
1L"
1v
0u
0h!
1f!
0x
0w
0V
1T
0/
1-
1y
1z
#700000
0!
0l
1D
00!
01!
#710000
1!
1l
0D
10!
11!
0s
0t
1F"
1q
0m
1j
1C
19!
16!
15!
14!
1Q
1N
1M
1L
1*
1'
1&
1%
#720000
0!
0l
1D
00!
01!
#730000
1!
1l
0D
10!
11!
1E"
0F"
13!
1m
1i
0j
1B
0C
09!
17!
06!
05!
0K
0Q
1O
0N
0M
0$
0*
1(
0'
0&
#740000
0!
0l
1D
00!
01!
#750000
1!
1l
0D
10!
11!
1F"
0q
1p
0m
1j
1C
07!
15!
0O
1M
0(
1&
#760000
0!
0l
1D
00!
01!
#770000
1!
1l
0D
10!
11!
0E"
1D"
0F"
1m
0i
1h
0j
0B
1A
0C
19!
16!
04!
1Q
1N
0L
1*
1'
0%
#780000
0!
0l
1D
00!
01!
#790000
1!
1l
0D
10!
11!
1F"
1q
0m
1j
1C
09!
18!
06!
0Q
1P
0N
0*
1)
0'
#800000
0!
0l
1D
00!
01!
#810000
1!
1l
0D
10!
11!
1E"
0F"
1m
1i
0j
1B
0C
05!
0M
0&
#820000
0!
0l
1D
00!
01!
#830000
1!
1l
0D
10!
11!
1F"
03!
12!
0q
0p
0m
1j
1C
08!
16!
15!
14!
1K
0P
1N
1M
1L
1$
0)
1'
1&
1%
#840000
0!
0l
1D
00!
01!
#850000
1!
1l
0D
10!
11!
1C"
0E"
0D"
0F"
13!
1m
1g
0i
0h
0j
1@
0B
0A
0C
06!
05!
04!
0K
0N
0M
0L
0$
0'
0&
0%
#860000
0!
0l
1D
00!
01!
#870000
1!
1l
0D
10!
11!
1F"
02!
1r
0m
1j
1C
15!
1M
1&
#880000
0!
0l
1D
00!
01!
#890000
1!
1l
0D
10!
11!
1s
1t
0C"
0F"
03!
0r
1m
0g
0j
0@
0C
05!
1K
0M
1$
0&
1J"
0K"
0L"
1)"
1y!
1Y!
1G!
1{
0y
0+"
0_!
0O!
1x
1w
0v
1u
1h!
0f!
1z!
0'"
1c!
1b!
1I!
0W!
1|
0z
0,"
0d!
0Z!
1P!
0{
1y
0w
1V
0T
1/
0-
0h!
0e!
0{!
0$"
1d!
0J!
0T!
1}
0b!
0|
1z
1R
0V
0S
1+
0/
0,
1j!
1g!
1f!
1!"
1Q!
0}
0R
1X
1U
1T
0+
11
1.
1-
#900000
0!
0l
1D
00!
01!
#910000
1!
1l
0D
10!
11!
0s
0t
1F"
1q
0m
1j
1C
19!
16!
15!
14!
1Q
1N
1M
1L
1*
1'
1&
1%
#920000
0!
0l
1D
00!
01!
#930000
1!
1l
0D
10!
11!
1E"
0F"
13!
1m
1i
0j
1B
0C
09!
17!
06!
05!
0K
0Q
1O
0N
0M
0$
0*
1(
0'
0&
#940000
0!
0l
1D
00!
01!
#950000
1!
1l
0D
10!
11!
1F"
0q
1p
0m
1j
1C
07!
15!
0O
1M
0(
1&
#960000
0!
0l
1D
00!
01!
#970000
1!
1l
0D
10!
11!
0E"
1D"
0F"
1m
0i
1h
0j
0B
1A
0C
19!
16!
04!
1Q
1N
0L
1*
1'
0%
#980000
0!
0l
1D
00!
01!
#990000
1!
1l
0D
10!
11!
1F"
1q
0m
1j
1C
09!
18!
06!
0Q
1P
0N
0*
1)
0'
