Exp6_2/simulation/qsim/Pre2.msim.vcd
$comment
	File created using the following command:
		vcd file Pre2.msim.vcd -direction
$end
$date
	Wed Dec 18 08:26:11 2024
$end
$version
	ModelSim Version 10.1d
$end
$timescale
	1ps
$end
$scope module Pre2_vlg_vec_tst $end
$var reg 1 ! A $end
$var reg 1 " B $end
$var reg 1 # C $end
$var reg 1 $ D $end
$var wire 1 % B0 $end
$var wire 1 & B1 $end
$var wire 1 ' B2 $end
$var wire 1 ( B3 $end
$var wire 1 ) B4 $end
$var wire 1 * B5 $end
$var wire 1 + B6 $end
$var wire 1 , B7 $end
$var wire 1 - B8 $end
$var wire 1 . B9 $end
$var wire 1 / sampler $end
$scope module i1 $end
$var wire 1 0 gnd $end
$var wire 1 1 vcc $end
$var wire 1 2 unknown $end
$var tri1 1 3 devclrn $end
$var tri1 1 4 devpor $end
$var tri1 1 5 devoe $end
$var wire 1 6 B0~output_o $end
$var wire 1 7 B1~output_o $end
$var wire 1 8 B3~output_o $end
$var wire 1 9 B4~output_o $end
$var wire 1 : B5~output_o $end
$var wire 1 ; B6~output_o $end
$var wire 1 < B7~output_o $end
$var wire 1 = B8~output_o $end
$var wire 1 > B9~output_o $end
$var wire 1 ? B2~output_o $end
$var wire 1 @ C~input_o $end
$var wire 1 A B~input_o $end
$var wire 1 B D~input_o $end
$var wire 1 C A~input_o $end
$var wire 1 D inst|saida[1]~0_combout $end
$var wire 1 E inst|saida[3]~1_combout $end
$var wire 1 F inst|saida[4]~2_combout $end
$var wire 1 G inst|saida[5]~3_combout $end
$var wire 1 H inst|saida[6]~4_combout $end
$var wire 1 I inst|saida[7]~5_combout $end
$var wire 1 J inst|saida[8]~6_combout $end
$var wire 1 K inst|saida[9]~7_combout $end
$var wire 1 L inst|saida[2]~8_combout $end
$var wire 1 M inst|saida [9] $end
$var wire 1 N inst|saida [8] $end
$var wire 1 O inst|saida [7] $end
$var wire 1 P inst|saida [6] $end
$var wire 1 Q inst|saida [5] $end
$var wire 1 R inst|saida [4] $end
$var wire 1 S inst|saida [3] $end
$var wire 1 T inst|saida [2] $end
$var wire 1 U inst|saida [1] $end
$var wire 1 V inst|saida [0] $end
$upscope $end
$upscope $end
$enddefinitions $end
#0
$dumpvars
0!
0"
0#
0$
x%
x&
x'
x(
x)
x*
x+
x,
x-
x.
x/
00
11
x2
13
14
15
x6
x7
x8
x9
x:
x;
x<
x=
x>
x?
0@
0A
0B
0C
xD
xE
xF
xG
xH
xI
xJ
xK
xL
xV
zU
zT
zS
zR
zQ
zP
zO
zN
zM
$end
#3794
0J
0K
#3801
0H
#3825
0G
#3832
0I
#3852
0F
#4072
0L
#4073
0D
#4221
0E
#4230
0V
#6837
0;
0+
#6916
0=
0-
#7037
09
0)
#7458
0<
0,
#7473
0?
0'
#7596
07
0&
#7657
16
1%
#7808
0>
0.
#8308
0:
0*
#9851
08
0(
#20000
1$
0/
#20517
1B
#24316
1V
1D
#27876
06
0%
#27957
17
1&
#40000
1#
1/
#40507
1@
#44464
1L
0D
#47987
07
0&
#47999
1?
1'
#60000
0$
0/
#60691
0B
#64761
1E
#64763
0L
#68164
0?
0'
#70465
18
1(
#80000
1"
1/
#80507
1A
#84029
1F
#84067
0E
#87339
19
1)
#89697
08
0(
#100000
1$
0/
#100517
1B
#104314
0F
#104317
1G
#107499
09
0)
#108862
1:
1*
#120000
0#
1/
#120681
0@
#124909
0G
#124918
1H
#128070
1;
1+
#129392
0:
0*
#140000
0$
0/
#140691
0B
#144765
1I
#144766
0H
#147802
0;
0+
#148518
1<
1,
#160000
1!
1/
#160537
1C
#164407
0I
#164419
1J
#167664
1=
1-
#168033
0<
0,
#180000
1$
0/
#180517
1B
#184312
0J
1K
#187434
0=
0-
#188393
1>
1.
#200000
1#
1/
#200507
1@
#204450
0K
#208464
0>
0.
#220000
0$
0/
#220691
0B
#240000
0"
1/
#240681
0A
#260000
1$
0/
#260517
1B
#280000
0#
1/
#280681
0@
#300000
0$
0/
#300691
0B
#320000
0!
1/
#320711
0C
#324941
0V
#328368
16
1%
#340000
1$
0/
#340517
1B
#344316
1V
1D
#347876
06
0%
#347957
17
1&
#360000
1#
1/
#360507
1@
#364464
1L
0D
#367987
07
0&
#367999
1?
1'
#380000
0$
0/
#380691
0B
#384761
1E
#384763
0L
#388164
0?
0'
#390465
18
1(
#400000
1"
1/
#400507
1A
#404029
1F
#404067
0E
#407339
19
1)
#409697
08
0(
#420000
1$
0/
#420517
1B
#424314
0F
#424317
1G
#427499
09
0)
#428862
1:
1*
#440000
0#
1/
#440681
0@
#444909
0G
#444918
1H
#448070
1;
1+
#449392
0:
0*
#460000
0$
0/
#460691
0B
#464765
1I
#464766
0H
#467802
0;
0+
#468518
1<
1,
#480000
1!
1/
#480537
1C
#484407
0I
#484419
1J
#487664
1=
1-
#488033
0<
0,
#500000
1$
0/
#500517
1B
#504312
0J
1K
#507434
0=
0-
#508393
1>
1.
#520000
1#
1/
#520507
1@
#524450
0K
#528464
0>
0.
#540000
0$
0/
#540691
0B
#560000
0"
1/
#560681
0A
#580000
1$
0/
#580517
1B
#600000
0#
1/
#600681
0@
#620000
0$
0/
#620691
0B
#640000
0!
1/
#640711
0C
#644941
0V
#648368
16
1%
#660000
1$
0/
#660517
1B
#664316
1V
1D
#667876
06
0%
#667957
17
1&
#680000
1#
1/
#680507
1@
#684464
1L
0D
#687987
07
0&
#687999
1?
1'
#700000
0$
0/
#700691
0B
#704761
1E
#704763
0L
#708164
0?
0'
#710465
18
1(
#720000
1"
1/
#720507
1A
#724029
1F
#724067
0E
#727339
19
1)
#729697
08
0(
#740000
1$
0/
#740517
1B
#744314
0F
#744317
1G
#747499
09
0)
#748862
1:
1*
#760000
0#
1/
#760681
0@
#764909
0G
#764918
1H
#768070
1;
1+
#769392
0:
0*
#780000
0$
0/
#780691
0B
#784765
1I
#784766
0H
#787802
0;
0+
#788518
1<
1,
#800000
1!
1/
#800537
1C
#804407
0I
#804419
1J
#807664
1=
1-
#808033
0<
0,
#820000
1$
0/
#820517
1B
#824312
0J
1K
#827434
0=
0-
#828393
1>
1.
#840000
1#
1/
#840507
1@
#844450
0K
#848464
0>
0.
#860000
0$
0/
#860691
0B
#880000
0"
1/
#880681
0A
#900000
1$
0/
#900517
1B
#920000
0#
1/
#920681
0@
#940000
0$
0/
#940691
0B
#960000
0!
1/
#960711
0C
#964941
0V
#968368
16
1%
#980000
1$
0/
#980517
1B
#984316
1V
1D
#987876
06
0%
#987957
17
1&
