8_4n/simulation/qsim/exp8.msim.vcd
$comment
	File created using the following command:
		vcd file exp8.msim.vcd -direction
$end
$date
	Wed Jan 22 20:32:53 2025
$end
$version
	ModelSim Version 10.1d
$end
$timescale
	1ps
$end
$scope module exp8_vlg_vec_tst $end
$var reg 1 ! CLOCK $end
$var reg 1 " RESET $end
$var wire 1 # COUNT [2] $end
$var wire 1 $ COUNT [1] $end
$var wire 1 % COUNT [0] $end
$var wire 1 & sampler $end
$scope module i1 $end
$var wire 1 ' gnd $end
$var wire 1 ( vcc $end
$var wire 1 ) unknown $end
$var tri1 1 * devclrn $end
$var tri1 1 + devpor $end
$var tri1 1 , devoe $end
$var wire 1 - COUNT[2]~output_o $end
$var wire 1 . COUNT[1]~output_o $end
$var wire 1 / COUNT[0]~output_o $end
$var wire 1 0 CLOCK~input_o $end
$var wire 1 1 CLOCK~inputclkctrl_outclk $end
$var wire 1 2 inst2~0_combout $end
$var wire 1 3 RESET~input_o $end
$var wire 1 4 RESET~inputclkctrl_outclk $end
$var wire 1 5 inst2~q $end
$var wire 1 6 inst1~0_combout $end
$var wire 1 7 inst1~q $end
$var wire 1 8 inst~0_combout $end
$var wire 1 9 inst~q $end
$var wire 1 : inst21|Decoder0~0_combout $end
$var wire 1 ; inst11|result~0_combout $end
$var wire 1 < inst21|WideOr0~0_combout $end
$upscope $end
$upscope $end
$enddefinitions $end
#0
$dumpvars
0!
1"
0%
0$
0#
x&
0'
1(
x)
1*
1+
1,
0-
0.
0/
00
01
02
13
14
05
06
07
18
09
0:
0;
0<
$end
#20000
1!
10
11
0&
#40000
0!
00
01
1&
#60000
0"
1!
03
10
04
11
0&
#80000
0!
00
01
1&
#100000
1!
10
11
0&
19
08
16
12
1<
1/
1%
#120000
0!
00
01
1&
#140000
1!
10
11
0&
09
17
15
02
0<
1;
0/
1.
0%
1$
#160000
0!
00
01
1&
#180000
1!
10
11
0&
05
18
06
12
1<
1/
1%
#200000
0!
00
01
1&
#220000
1!
10
11
0&
19
07
15
16
0<
0;
1:
0/
0.
1-
0%
0$
1#
#240000
0!
00
01
1&
#260000
1!
10
11
0&
17
08
06
02
1<
1/
1%
#280000
0!
00
01
1&
#300000
1!
10
11
0&
09
07
05
18
0<
0:
0/
0-
0%
0#
#320000
0!
00
01
1&
#340000
1!
10
11
0&
19
08
16
12
1<
1/
1%
#360000
0!
00
01
1&
#380000
1!
10
11
0&
09
17
15
02
0<
1;
0/
1.
0%
1$
#400000
0!
00
01
1&
#420000
1!
10
11
0&
05
18
06
12
1<
1/
1%
#440000
0!
00
01
1&
#460000
1!
10
11
0&
19
07
15
16
0<
0;
1:
0/
0.
1-
0%
0$
1#
#480000
0!
00
01
1&
#500000
1!
10
11
0&
17
08
06
02
1<
1/
1%
#520000
0!
00
01
1&
#540000
1!
10
11
0&
09
07
05
18
0<
0:
0/
0-
0%
0#
#560000
0!
00
01
1&
#580000
1!
10
11
0&
19
08
16
12
1<
1/
1%
#600000
0!
00
01
1&
#620000
1!
10
11
0&
09
17
15
02
0<
1;
0/
1.
0%
1$
#640000
0!
00
01
1&
#660000
1!
10
11
0&
05
18
06
12
1<
1/
1%
#680000
0!
00
01
1&
#700000
1!
10
11
0&
19
07
15
16
0<
0;
1:
0/
0.
1-
0%
0$
1#
#720000
0!
00
01
1&
#740000
1!
10
11
0&
17
08
06
02
1<
1/
1%
#760000
0!
00
01
1&
#780000
1!
10
11
0&
09
07
05
18
0<
0:
0/
0-
0%
0#
#800000
0!
00
01
1&
#820000
1!
10
11
0&
19
08
16
12
1<
1/
1%
#840000
0!
00
01
1&
#860000
1!
10
11
0&
09
17
15
02
0<
1;
0/
1.
0%
1$
#880000
0!
00
01
1&
#900000
1!
10
11
0&
05
18
06
12
1<
1/
1%
#920000
0!
00
01
1&
#940000
1!
10
11
0&
19
07
15
16
0<
0;
1:
0/
0.
1-
0%
0$
1#
#960000
0!
00
01
1&
#980000
1!
10
11
0&
17
08
06
02
1<
1/
1%
