10_1/simulation/qsim/Exp10.msim.vcd
$comment
	File created using the following command:
		vcd file Exp10.msim.vcd -direction
$end
$date
	Tue Feb 04 09:07:15 2025
$end
$version
	ModelSim Version 10.1d
$end
$timescale
	1ps
$end
$scope module Exp10_vlg_vec_tst $end
$var reg 1 ! CLOCK $end
$var reg 2 " SW [1:0] $end
$var wire 1 # GREEN_C $end
$var wire 1 $ GREEN_P $end
$var wire 1 % RED_C $end
$var wire 1 & RED_P $end
$var wire 1 ' YELLOW_C $end
$var wire 1 ( sampler $end
$scope module i1 $end
$var wire 1 ) gnd $end
$var wire 1 * vcc $end
$var wire 1 + unknown $end
$var tri1 1 , devclrn $end
$var tri1 1 - devpor $end
$var tri1 1 . devoe $end
$var wire 1 / GREEN_C~output_o $end
$var wire 1 0 RED_C~output_o $end
$var wire 1 1 YELLOW_C~output_o $end
$var wire 1 2 GREEN_P~output_o $end
$var wire 1 3 RED_P~output_o $end
$var wire 1 4 CLOCK~input_o $end
$var wire 1 5 CLOCK~inputclkctrl_outclk $end
$var wire 1 6 SW[0]~input_o $end
$var wire 1 7 inst|Selector1~0_combout $end
$var wire 1 8 SW[1]~input_o $end
$var wire 1 9 SW[1]~inputclkctrl_outclk $end
$var wire 1 : inst|state.ESTADO_5A~q $end
$var wire 1 ; inst|state.APAGA_TODAS~feeder_combout $end
$var wire 1 < inst|state.APAGA_TODAS~q $end
$var wire 1 = inst|next.ESTADO_12~0_combout $end
$var wire 1 > inst|state.ESTADO_12~q $end
$var wire 1 ? inst|next.ESTADO_13~0_combout $end
$var wire 1 @ inst|state.ESTADO_13~q $end
$var wire 1 A inst|next.ESTADO_14~0_combout $end
$var wire 1 B inst|state.ESTADO_14~q $end
$var wire 1 C inst|next.ESTADO_15~0_combout $end
$var wire 1 D inst|state.ESTADO_15~q $end
$var wire 1 E inst|next.ESTADO_16~0_combout $end
$var wire 1 F inst|state.ESTADO_16~q $end
$var wire 1 G inst|next.ESTADO_2~0_combout $end
$var wire 1 H inst|state.ESTADO_2~q $end
$var wire 1 I inst|next.ESTADO_31~0_combout $end
$var wire 1 J inst|state.ESTADO_31~q $end
$var wire 1 K inst|next.ESTADO_32~0_combout $end
$var wire 1 L inst|state.ESTADO_32~q $end
$var wire 1 M inst|next.ESTADO_33~0_combout $end
$var wire 1 N inst|state.ESTADO_33~q $end
$var wire 1 O inst|next.ESTADO_34~0_combout $end
$var wire 1 P inst|state.ESTADO_34~q $end
$var wire 1 Q inst|next.ESTADO_41~0_combout $end
$var wire 1 R inst|state.ESTADO_41~q $end
$var wire 1 S inst|next.ESTADO_42~0_combout $end
$var wire 1 T inst|state.ESTADO_42~q $end
$var wire 1 U inst|next.ESTADO_43~0_combout $end
$var wire 1 V inst|state.ESTADO_43~q $end
$var wire 1 W inst|next.ESTADO_44~0_combout $end
$var wire 1 X inst|state.ESTADO_44~q $end
$var wire 1 Y inst|next.ESTADO_45~0_combout $end
$var wire 1 Z inst|state.ESTADO_45~q $end
$var wire 1 [ inst|next.ESTADO_5B~0_combout $end
$var wire 1 \ inst|state.ESTADO_5B~q $end
$var wire 1 ] inst|WideOr0~0_combout $end
$var wire 1 ^ inst|state.ESTADO_11~q $end
$var wire 1 _ inst|WideOr1~0_combout $end
$var wire 1 ` inst|WideOr1~combout $end
$var wire 1 a inst|WideOr2~0_combout $end
$var wire 1 b inst|WideOr2~1_combout $end
$var wire 1 c inst|WideOr2~combout $end
$var wire 1 d inst|yc~combout $end
$var wire 1 e inst|WideOr4~combout $end
$upscope $end
$upscope $end
$enddefinitions $end
#0
$dumpvars
0!
b10 "
x#
x$
x%
x&
x'
x(
0)
1*
x+
1,
1-
1.
x/
x0
x1
x2
x3
04
x5
06
x7
18
x9
0:
1;
0<
x=
0>
x?
0@
xA
0B
xC
0D
xE
0F
xG
0H
xI
0J
xK
0L
xM
0N
xO
0P
xQ
0R
xS
0T
xU
0V
xW
0X
xY
0Z
x[
0\
x]
0^
x_
x`
xa
xb
xc
xd
xe
$end
#378
05
#390
19
#412
0I
0W
#413
0A
#415
0E
0G
0Q
0U
#416
0O
0S
0=
#418
0?
#425
0C
#426
0M
#428
1e
#535
0Y
#546
0K
#562
0d
#565
0[
#671
0_
#672
1a
#686
1]
#998
1b
#1115
0`
#1592
0c
#3536
07
#3704
02
0$
#3712
03
0&
#4292
0/
0#
#4459
00
0%
#4714
01
0'
#10000
1!
0(
#10527
14
#10917
15
#20000
0!
1(
#20701
04
#21079
05
#30000
1!
0(
#30527
14
#30917
15
#40000
0!
1(
#40701
04
#41079
05
#50000
1!
0(
#50527
14
#50917
15
#60000
0!
1(
#60701
04
#61079
05
#70000
b0 "
1!
0(
#70527
14
#70701
08
#70917
15
#71079
09
#80000
0!
1(
#80701
04
#81079
05
#90000
1!
0(
#90527
14
#90917
15
#92553
1<
1^
#92900
0e
#92908
1=
#93161
1`
#93178
0]
#96053
13
1&
#96473
1/
1#
#100000
0!
1(
#100701
04
#101079
05
#110000
1!
0(
#110527
14
#110917
15
#112553
1>
0^
#112910
1?
#112969
0=
#113166
1_
#113251
0`
#113584
1`
#120000
0!
1(
#120701
04
#121079
05
#130000
1!
0(
#130527
14
#130917
15
#132553
0>
1@
#132907
1A
#132971
0?
#140000
0!
1(
#140701
04
#141079
05
#150000
1!
0(
#150527
14
#150917
15
#152553
0@
1B
#152921
1C
#152966
0A
#160000
0!
1(
#160701
04
#161079
05
#170000
1!
0(
#170527
14
#170917
15
#172553
0B
1D
#172908
1E
#172978
0C
#180000
0!
1(
#180701
04
#181079
05
#190000
1!
0(
#190527
14
#190917
15
#192553
0D
1F
#192907
1G
#192968
0E
#193231
0_
#200000
0!
1(
#200701
04
#201079
05
#210000
1!
0(
#210527
14
#210917
15
#212553
0F
1H
#212905
1d
#212907
1I
#212966
0`
#212968
0G
#216143
0/
0#
#217141
11
1'
#220000
0!
1(
#220701
04
#221079
05
#230000
1!
0(
#230527
14
#230917
15
#232553
0H
1J
#232963
0d
#232965
0I
#233036
0a
#233051
1K
#233376
0b
#233984
1c
#234069
1e
#235949
12
1$
#236968
10
1%
#237115
01
0'
#237353
03
0&
#240000
0!
1(
#240701
04
#241079
05
#250000
1!
0(
#250527
14
#250917
15
#252552
1L
#252553
0J
#252921
1M
#253099
0K
#260000
0!
1(
#260701
04
#261079
05
#270000
1!
0(
#270527
14
#270917
15
#272552
0L
1N
#272908
1O
#272978
0M
#280000
0!
1(
#280701
04
#281079
05
#290000
1!
0(
#290527
14
#290917
15
#292552
0N
1P
#292906
1Q
#292968
0O
#300000
0!
1(
#300701
04
#301079
05
#310000
1!
0(
#310527
14
#310917
15
#312552
0P
1R
#312908
1S
#312967
0Q
#313228
1a
#313554
1b
#314241
0e
#316260
02
0$
#317394
13
1&
#320000
0!
1(
#320701
04
#321079
05
#330000
1!
0(
#330527
14
#330917
15
#332552
0R
1T
#332906
1U
#332968
0S
#333128
0b
#333252
0c
#333736
1c
#333821
1e
#337105
03
0&
#340000
0!
1(
#340701
04
#341079
05
#350000
1!
0(
#350527
14
#350917
15
#352552
0T
1V
#352906
1W
#352967
0U
#353216
1b
#353903
0e
#357056
13
1&
#360000
0!
1(
#360701
04
#361079
05
#370000
1!
0(
#370527
14
#370917
15
#372552
0V
1X
#372964
0W
0c
#373032
0b
#373048
1Y
#373640
1c
#373725
1e
#377009
03
0&
#380000
0!
1(
#380701
04
#381079
05
#390000
1!
0(
#390527
14
#390917
15
#392552
0X
#392553
1Z
#393038
1]
#393087
0Y
#393101
1b
#393788
0e
#396941
13
1&
#400000
0!
1(
#400701
04
#401079
05
#410000
1!
0(
#410527
14
#410917
15
#412553
0Z
1^
#412908
1=
#413107
0]
#413161
1`
#413454
0c
#416321
00
0%
#416473
1/
1#
#420000
0!
1(
#420701
04
#421079
05
#430000
1!
0(
#430527
14
#430917
15
#432553
1>
0^
#432910
1?
#432969
0=
#433166
1_
#433251
0`
#433584
1`
#440000
0!
1(
#440701
04
#441079
05
#450000
b1 "
1!
0(
#450527
14
16
#450917
15
#452553
0>
1@
#452907
1A
#452971
0?
#453811
17
#454043
0A
#460000
0!
1(
#460701
04
#461079
05
#470000
1!
0(
#470527
14
#470917
15
#472553
1:
0@
#472922
07
#472962
0_
#473032
1e
#473036
1d
#473038
1[
#473166
1]
#473406
0`
#476316
03
0&
#476583
0/
0#
#477272
11
1'
#480000
0!
1(
#480701
04
#481079
05
#490000
1!
0(
#490527
14
#490917
15
#492553
0:
1\
#492906
17
#493115
0d
#493118
0[
#497267
01
0'
#500000
0!
1(
#500701
04
#501079
05
#510000
1!
0(
#510527
14
#510917
15
#512553
1:
0\
#512922
07
#513036
1d
#513038
1[
#517272
11
1'
#520000
0!
1(
#520701
04
#521079
05
#530000
1!
0(
#530527
14
#530917
15
#532553
0:
1\
#532906
17
#533115
0d
#533118
0[
#537267
01
0'
#540000
b0 "
0!
1(
#540701
04
06
#541079
05
#544237
07
#550000
1!
0(
#550527
14
#550917
15
#552553
0\
1^
#552908
1=
#552977
0]
#553161
1`
#553323
0e
#556473
1/
1#
#556476
13
1&
#560000
0!
1(
#560701
04
#561079
05
#570000
1!
0(
#570527
14
#570917
15
#572553
1>
0^
#572910
1?
#572969
0=
#573166
1_
#573251
0`
#573584
1`
#580000
0!
1(
#580701
04
#581079
05
#590000
1!
0(
#590527
14
#590917
15
#592553
0>
1@
#592907
1A
#592971
0?
#600000
0!
1(
#600701
04
#601079
05
#610000
1!
0(
#610527
14
#610917
15
#612553
0@
1B
#612921
1C
#612966
0A
#620000
0!
1(
#620701
04
#621079
05
#630000
1!
0(
#630527
14
#630917
15
#632553
0B
1D
#632908
1E
#632978
0C
#640000
0!
1(
#640701
04
#641079
05
#650000
1!
0(
#650527
14
#650917
15
#652553
0D
1F
#652907
1G
#652968
0E
#653231
0_
#660000
0!
1(
#660701
04
#661079
05
#670000
1!
0(
#670527
14
#670917
15
#672553
0F
1H
#672905
1d
#672907
1I
#672966
0`
#672968
0G
#676143
0/
0#
#677141
11
1'
#680000
b1 "
0!
1(
#680527
16
#680701
04
#681079
05
#683811
17
#684043
0I
#690000
1!
0(
#690527
14
#690917
15
#692553
1:
0H
#692922
07
#693032
1e
#693038
1[
#693166
1]
#696316
03
0&
#700000
b0 "
0!
1(
#700701
04
06
#701079
05
#704514
0[
#710000
1!
0(
#710527
14
#710917
15
#712553
0:
1^
#712908
1=
#713114
0e
#713115
0d
#713161
1`
#713281
0]
#716267
13
1&
#716473
1/
1#
#717267
01
0'
#720000
0!
1(
#720701
04
#721079
05
#730000
1!
0(
#730527
14
#730917
15
#732553
1>
0^
#732910
1?
#732969
0=
#733166
1_
#733251
0`
#733584
1`
#740000
0!
1(
#740701
04
#741079
05
#750000
1!
0(
#750527
14
#750917
15
#752553
0>
1@
#752907
1A
#752971
0?
#760000
0!
1(
#760701
04
#761079
05
#770000
1!
0(
#770527
14
#770917
15
#772553
0@
1B
#772921
1C
#772966
0A
#780000
0!
1(
#780701
04
#781079
05
#790000
1!
0(
#790527
14
#790917
15
#792553
0B
1D
#792908
1E
#792978
0C
#800000
0!
1(
#800701
04
#801079
05
#810000
1!
0(
#810527
14
#810917
15
#812553
0D
1F
#812907
1G
#812968
0E
#813231
0_
#820000
0!
1(
#820701
04
#821079
05
#830000
1!
0(
#830527
14
#830917
15
#832553
0F
1H
#832905
1d
#832907
1I
#832966
0`
#832968
0G
#836143
0/
0#
#837141
11
1'
#840000
0!
1(
#840701
04
#841079
05
#850000
1!
0(
#850527
14
#850917
15
#852553
0H
1J
#852963
0d
#852965
0I
#853036
0a
#853051
1K
#853376
0b
#853984
1c
#854069
1e
#855949
12
1$
#856968
10
1%
#857115
01
0'
#857353
03
0&
#860000
0!
1(
#860701
04
#861079
05
#870000
1!
0(
#870527
14
#870917
15
#872552
1L
#872553
0J
#872921
1M
#873099
0K
#880000
0!
1(
#880701
04
#881079
05
#890000
1!
0(
#890527
14
#890917
15
#892552
0L
1N
#892908
1O
#892978
0M
#900000
0!
1(
#900701
04
#901079
05
#910000
1!
0(
#910527
14
#910917
15
#912552
0N
1P
#912906
1Q
#912968
0O
#920000
0!
1(
#920701
04
#921079
05
#930000
1!
0(
#930527
14
#930917
15
#932552
0P
1R
#932908
1S
#932967
0Q
#933228
1a
#933554
1b
#934241
0e
#936260
02
0$
#937394
13
1&
#940000
0!
1(
#940701
04
#941079
05
#950000
1!
0(
#950527
14
#950917
15
#952552
0R
1T
#952906
1U
#952968
0S
#953128
0b
#953252
0c
#953736
1c
#953821
1e
#957105
03
0&
#960000
0!
1(
#960701
04
#961079
05
#970000
1!
0(
#970527
14
#970917
15
#972552
0T
1V
#972906
1W
#972967
0U
#973216
1b
#973903
0e
#977056
13
1&
#980000
0!
1(
#980701
04
#981079
05
#990000
1!
0(
#990527
14
#990917
15
#992552
0V
1X
#992964
0W
0c
#993032
0b
#993048
1Y
#993640
1c
#993725
1e
#997009
03
0&
